<?xml version="1.0" encoding="utf-8"?>
<!-- Generator: Adobe Illustrator 13.0.0, SVG Export Plug-In  -->
<!DOCTYPE svg PUBLIC "-//W3C//DTD SVG 1.1//EN" "http://www.w3.org/Graphics/SVG/1.1/DTD/svg11.dtd" [
	<!ENTITY ns_flows "http://ns.adobe.com/Flows/1.0/">
]>
<svg version="1.1"
	 xmlns="http://www.w3.org/2000/svg" xmlns:xlink="http://www.w3.org/1999/xlink" xmlns:a="http://ns.adobe.com/AdobeSVGViewerExtensions/3.0/"
	 x="0px" y="0px" width="40px" height="40px" viewBox="-0.637 -0.575 40 40" enable-background="new -0.637 -0.575 40 40"
	 xml:space="preserve">
<defs>
</defs>
<path fill="#00AEA9" d="M9.523,9.524c4.026-4.027,6.409-8.172,5.321-9.261c-1.087-1.088-5.233,1.296-9.26,5.322
	c-4.027,4.026-6.409,8.171-5.32,9.258C1.351,15.932,5.496,13.55,9.523,9.524 M38.846,37.623c-0.158-0.352-0.316-0.702-0.469-1.061
	c-3.652-8.601-5.406-17.285-5.416-25.11c0,0-17.184-10.896-17.142-10.854c1.087,1.087-1.463,5.4-5.695,9.633
	c-3.895,3.896-7.852,6.356-9.306,5.879l10.703,16.868c7.802,0.025,16.455,1.78,25.025,5.417c0.396,0.169,0.779,0.354,1.168,0.531
	L23.941,25.151c-0.812,0.275-1.801,0.05-2.51-0.658c-0.957-0.957-1.039-2.429-0.182-3.285c0.855-0.856,2.326-0.775,3.285,0.184
	c0.721,0.724,0.943,1.739,0.641,2.562L38.846,37.623z"/>
</svg>
