<?xml version="1.0" encoding="utf-8"?>
<!-- Generator: Adobe Illustrator 13.0.0, SVG Export Plug-In  -->
<!DOCTYPE svg PUBLIC "-//W3C//DTD SVG 1.1//EN" "http://www.w3.org/Graphics/SVG/1.1/DTD/svg11.dtd" [
	<!ENTITY ns_flows "http://ns.adobe.com/Flows/1.0/">
]>
<svg version="1.1"
	 xmlns="http://www.w3.org/2000/svg" xmlns:xlink="http://www.w3.org/1999/xlink" xmlns:a="http://ns.adobe.com/AdobeSVGViewerExtensions/3.0/"
	 x="0px" y="0px" width="125px" height="20px" viewBox="-10.963 -3.764 125 20" enable-background="new -10.963 -3.764 125 20"
	 xml:space="preserve">
<defs>
</defs>
<polygon fill="#F7931E" stroke="#F7931E" points="0.501,1.211 8.955,6.094 0.5,10.973 "/>
<polygon fill="#EA1074" stroke="#EA1074" points="4.482,1.167 12.935,6.049 4.48,10.928 "/>
<polygon fill="#00ADA9" stroke="#00ADA9" points="8.664,1.138 17.117,6.02 8.663,10.898 "/>
<polygon fill="#B4D357" stroke="#B4D357" points="12.734,1.11 21.446,6.142 12.732,11.171 "/>
<polygon fill="#FFFFFF" stroke="#FFFFFF" points="16.585,0.866 25.554,6.047 16.584,11.224 "/>
</svg>
